soc_verify/soc_dram/run_vivado/project/loongson.sim/sim_1/behav/xsim/dump.vcd
$date
   Fri Dec  6 21:57:49 2024
$end

$version
  2023.2
  $dumpfile ("dump.vcd") 
$end

$timescale
  1ps
$end

$scope module tb_top $end
$scope module soc_lite $end
$var wire 1 ! resetn $end
$var wire 1 " clk $end
$var wire 16 # led [15:0] $end
$var wire 2 $ led_rg0 [1:0] $end
$var wire 2 % led_rg1 [1:0] $end
$var wire 8 & num_csn [7:0] $end
$var wire 7 ' num_a_g [6:0] $end
$var wire 32 ( num_data [31:0] $end
$var wire 8 ) switch [7:0] $end
$var wire 4 * btn_key_col [3:0] $end
$var wire 4 + btn_key_row [3:0] $end
$var wire 2 , btn_step [1:0] $end
$var wire 32 - debug_wb_pc [31:0] $end
$var wire 4 . debug_wb_rf_we [3:0] $end
$var wire 5 / debug_wb_rf_wnum [4:0] $end
$var wire 32 0 debug_wb_rf_wdata [31:0] $end
$var wire 1 1 cpu_clk $end
$var wire 1 2 timer_clk $end
$var reg 1 3 cpu_resetn $end
$var wire 1 4 cpu_inst_we $end
$var wire 32 5 cpu_inst_addr [31:0] $end
$var wire 32 6 cpu_inst_wdata [31:0] $end
$var wire 32 7 cpu_inst_rdata [31:0] $end
$var wire 1 8 cpu_data_we $end
$var wire 32 9 cpu_data_addr [31:0] $end
$var wire 32 : cpu_data_wdata [31:0] $end
$var wire 32 ; cpu_data_rdata [31:0] $end
$var wire 1 < data_sram_en $end
$var wire 1 = data_sram_we $end
$var wire 32 > data_sram_addr [31:0] $end
$var wire 32 ? data_sram_wdata [31:0] $end
$var wire 32 @ data_sram_rdata [31:0] $end
$var wire 1 A conf_en $end
$var wire 1 B conf_we $end
$var wire 32 C conf_addr [31:0] $end
$var wire 32 D conf_wdata [31:0] $end
$var wire 32 E conf_rdata [31:0] $end
$scope module cpu $end
$var wire 1 1 clk $end
$var wire 1 F resetn $end
$var wire 1 4 inst_sram_we $end
$var wire 32 5 inst_sram_addr [31:0] $end
$var wire 32 6 inst_sram_wdata [31:0] $end
$var wire 32 7 inst_sram_rdata [31:0] $end
$var wire 1 8 data_sram_we $end
$var wire 32 9 data_sram_addr [31:0] $end
$var wire 32 : data_sram_wdata [31:0] $end
$var wire 32 ; data_sram_rdata [31:0] $end
$var wire 32 - debug_wb_pc [31:0] $end
$var wire 4 . debug_wb_rf_we [3:0] $end
$var wire 5 / debug_wb_rf_wnum [4:0] $end
$var wire 32 0 debug_wb_rf_wdata [31:0] $end
$var reg 1 G reset $end
$var reg 1 H valid $end
$var wire 32 I seq_pc [31:0] $end
$var wire 32 J nextpc [31:0] $end
$var wire 1 K br_taken $end
$var wire 32 L br_target [31:0] $end
$var wire 32 M inst [31:0] $end
$var reg 32 N pc [31:0] $end
$var wire 12 O alu_op [11:0] $end
$var wire 1 P load_op $end
$var wire 1 Q src1_is_pc $end
$var wire 1 R src2_is_imm $end
$var wire 1 S res_from_mem $end
$var wire 1 T dst_is_r1 $end
$var wire 1 U gr_we $end
$var wire 1 V mem_we $end
$var wire 1 W src_reg_is_rd $end
$var wire 5 X dest [4:0] $end
$var wire 32 Y rj_value [31:0] $end
$var wire 32 Z rkd_value [31:0] $end
$var wire 32 [ imm [31:0] $end
$var wire 32 \ br_offs [31:0] $end
$var wire 32 ] jirl_offs [31:0] $end
$var wire 6 ^ op_31_26 [5:0] $end
$var wire 4 _ op_25_22 [3:0] $end
$var wire 2 ` op_21_20 [1:0] $end
$var wire 5 a op_19_15 [4:0] $end
$var wire 5 b rd [4:0] $end
$var wire 5 c rj [4:0] $end
$var wire 5 d rk [4:0] $end
$var wire 12 e i12 [11:0] $end
$var wire 20 f i20 [19:0] $end
$var wire 16 g i16 [15:0] $end
$var wire 26 h i26 [25:0] $end
$var wire 64 i op_31_26_d [63:0] $end
$var wire 16 j op_25_22_d [15:0] $end
$var wire 4 k op_21_20_d [3:0] $end
$var wire 32 l op_19_15_d [31:0] $end
$var wire 1 m inst_add_w $end
$var wire 1 n inst_sub_w $end
$var wire 1 o inst_slt $end
$var wire 1 p inst_sltu $end
$var wire 1 q inst_nor $end
$var wire 1 r inst_and $end
$var wire 1 s inst_or $end
$var wire 1 t inst_xor $end
$var wire 1 u inst_slli_w $end
$var wire 1 v inst_srli_w $end
$var wire 1 w inst_srai_w $end
$var wire 1 x inst_addi_w $end
$var wire 1 y inst_ld_w $end
$var wire 1 z inst_st_w $end
$var wire 1 { inst_jirl $end
$var wire 1 | inst_b $end
$var wire 1 } inst_bl $end
$var wire 1 ~ inst_beq $end
$var wire 1 !! inst_bne $end
$var wire 1 "! inst_lu12i_w $end
$var wire 1 #! need_ui5 $end
$var wire 1 $! need_si12 $end
$var wire 1 %! need_si16 $end
$var wire 1 &! need_si20 $end
$var wire 1 '! need_si26 $end
$var wire 1 (! src2_is_4 $end
$var wire 5 )! rf_raddr1 [4:0] $end
$var wire 32 *! rf_rdata1 [31:0] $end
$var wire 5 +! rf_raddr2 [4:0] $end
$var wire 32 ,! rf_rdata2 [31:0] $end
$var wire 1 -! rf_we $end
$var wire 5 .! rf_waddr [4:0] $end
$var wire 32 /! rf_wdata [31:0] $end
$var wire 32 0! alu_src1 [31:0] $end
$var wire 32 1! alu_src2 [31:0] $end
$var wire 32 2! alu_result [31:0] $end
$var wire 32 3! mem_result [31:0] $end
$var wire 32 4! final_result [31:0] $end
$var wire 1 5! rj_eq_rd $end
$scope module u_dec0 $end
$var wire 6 ^ in [5:0] $end
$var wire 64 i out [63:0] $end
$upscope $end
$scope module u_dec1 $end
$var wire 4 _ in [3:0] $end
$var wire 16 j out [15:0] $end
$upscope $end
$scope module u_dec2 $end
$var wire 2 ` in [1:0] $end
$var wire 4 k out [3:0] $end
$upscope $end
$scope module u_dec3 $end
$var wire 5 a in [4:0] $end
$var wire 32 l out [31:0] $end
$upscope $end
$scope module u_regfile $end
$var wire 1 1 clk $end
$var wire 5 )! raddr1 [4:0] $end
$var wire 32 *! rdata1 [31:0] $end
$var wire 5 +! raddr2 [4:0] $end
$var wire 32 ,! rdata2 [31:0] $end
$var wire 1 -! we $end
$var wire 5 .! waddr [4:0] $end
$var wire 32 /! wdata [31:0] $end
$upscope $end
$scope module u_alu $end
$var wire 12 O alu_op [11:0] $end
$var wire 32 0! alu_src1 [31:0] $end
$var wire 32 1! alu_src2 [31:0] $end
$var wire 32 2! alu_result [31:0] $end
$var wire 1 6! op_add $end
$var wire 1 7! op_sub $end
$var wire 1 8! op_slt $end
$var wire 1 9! op_sltu $end
$var wire 1 :! op_and $end
$var wire 1 ;! op_nor $end
$var wire 1 <! op_or $end
$var wire 1 =! op_xor $end
$var wire 1 >! op_sll $end
$var wire 1 ?! op_srl $end
$var wire 1 @! op_sra $end
$var wire 1 A! op_lui $end
$var wire 32 B! add_sub_result [31:0] $end
$var wire 32 C! slt_result [31:0] $end
$var wire 32 D! sltu_result [31:0] $end
$var wire 32 E! and_result [31:0] $end
$var wire 32 F! nor_result [31:0] $end
$var wire 32 G! or_result [31:0] $end
$var wire 32 H! xor_result [31:0] $end
$var wire 32 I! lui_result [31:0] $end
$var wire 32 J! sll_result [31:0] $end
$var wire 64 K! sr64_result [63:0] $end
$var wire 32 L! sr_result [31:0] $end
$var wire 32 M! adder_a [31:0] $end
$var wire 32 N! adder_b [31:0] $end
$var wire 1 O! adder_cin $end
$var wire 32 P! adder_result [31:0] $end
$var wire 1 Q! adder_cout $end
$upscope $end
$upscope $end
$scope module inst_ram $end
$var wire 15 R! a [14:0] $end
$var wire 32 6 d [31:0] $end
$var wire 1 1 clk $end
$var wire 1 4 we $end
$var wire 32 7 spo [31:0] $end
$scope module inst $end
$var wire 15 R! a [14:0] $end
$var wire 32 6 d [31:0] $end
$var wire 15 S! dpra [14:0] $end
$var wire 1 1 clk $end
$var wire 1 4 we $end
$var wire 1 T! i_ce $end
$var wire 1 T! qspo_ce $end
$var wire 1 T! qdpo_ce $end
$var wire 1 U! qdpo_clk $end
$var wire 1 U! qspo_rst $end
$var wire 1 U! qdpo_rst $end
$var wire 1 U! qspo_srst $end
$var wire 1 U! qdpo_srst $end
$var wire 32 7 spo [31:0] $end
$var wire 32 V! qspo [31:0] $end
$var wire 32 W! dpo [31:0] $end
$var wire 32 X! qdpo [31:0] $end
$var wire 15 Y! a_int [14:0] $end
$var wire 32 Z! d_int [31:0] $end
$var wire 1 [! we_int $end
$var wire 1 \! qspo_ce_int $end
$var wire 1 ]! qdpo_clk_int $end
$var wire 15 ^! dpra_int [14:0] $end
$var wire 1 _! qdpo_ce_int $end
$var reg 1 `! we_reg $end
$var reg 15 a! a_reg [14:0] $end
$var reg 32 b! d_reg [31:0] $end
$var reg 1 c! qspo_ce_reg $end
$var reg 15 d! dpra_reg [14:0] $end
$var reg 1 e! qdpo_ce_reg $end
$var wire 32 f! spo_int [31:0] $end
$var wire 32 g! dpo_int [31:0] $end
$var reg 32 h! qspo_int [31:0] $end
$var reg 32 i! qspo_pipe [31:0] $end
$var reg 32 j! qdpo_int [31:0] $end
$var reg 32 k! qdpo_pipe [31:0] $end
$var reg 32 l! default_data [31:0] $end
$var wire 32 m! data_sp [31:0] $end
$var wire 32 n! data_dp [31:0] $end
$var wire 32 o! data_sp_over [31:0] $end
$var wire 32 p! data_dp_over [31:0] $end
$var wire 15 q! a_over [14:0] $end
$var wire 15 r! dpra_over [14:0] $end
$var wire 1 s! a_is_over $end
$var wire 1 t! dpra_is_over $end
$var reg 15 u! max_address [14:0] $end
$var integer 32 v! i [31:0] $end
$var integer 32 w! j [31:0] $end
$scope function binstr_conv $end
$var reg 32 x! binstr_conv [31:0] $end
$var reg 256 y! def_data [255:0] $end
$var integer 32 z! index [31:0] $end
$var integer 32 {! i [31:0] $end
$upscope $end
$upscope $end
$upscope $end
$scope module bridge_1x2 $end
$var wire 1 1 clk $end
$var wire 1 |! resetn $end
$var wire 1 8 cpu_data_we $end
$var wire 32 9 cpu_data_addr [31:0] $end
$var wire 32 : cpu_data_wdata [31:0] $end
$var wire 32 ; cpu_data_rdata [31:0] $end
$var wire 1 < data_sram_en $end
$var wire 1 = data_sram_we $end
$var wire 32 > data_sram_addr [31:0] $end
$var wire 32 ? data_sram_wdata [31:0] $end
$var wire 32 @ data_sram_rdata [31:0] $end
$var wire 1 A conf_en $end
$var wire 1 B conf_we $end
$var wire 32 C conf_addr [31:0] $end
$var wire 32 D conf_wdata [31:0] $end
$var wire 32 E conf_rdata [31:0] $end
$var wire 1 }! sel_sram $end
$var wire 1 ~! sel_conf $end
$upscope $end
$scope module data_ram $end
$var wire 10 !" a [9:0] $end
$var wire 32 ? d [31:0] $end
$var wire 1 1 clk $end
$var wire 1 "" we $end
$var wire 32 @ spo [31:0] $end
$scope module inst $end
$var wire 10 !" a [9:0] $end
$var wire 32 ? d [31:0] $end
$var wire 10 #" dpra [9:0] $end
$var wire 1 1 clk $end
$var wire 1 "" we $end
$var wire 1 $" i_ce $end
$var wire 1 $" qspo_ce $end
$var wire 1 $" qdpo_ce $end
$var wire 1 %" qdpo_clk $end
$var wire 1 %" qspo_rst $end
$var wire 1 %" qdpo_rst $end
$var wire 1 %" qspo_srst $end
$var wire 1 %" qdpo_srst $end
$var wire 32 @ spo [31:0] $end
$var wire 32 &" qspo [31:0] $end
$var wire 32 '" dpo [31:0] $end
$var wire 32 (" qdpo [31:0] $end
$var wire 10 )" a_int [9:0] $end
$var wire 32 *" d_int [31:0] $end
$var wire 1 +" we_int $end
$var wire 1 ," qspo_ce_int $end
$var wire 1 -" qdpo_clk_int $end
$var wire 10 ." dpra_int [9:0] $end
$var wire 1 /" qdpo_ce_int $end
$var reg 1 0" we_reg $end
$var reg 10 1" a_reg [9:0] $end
$var reg 32 2" d_reg [31:0] $end
$var reg 1 3" qspo_ce_reg $end
$var reg 10 4" dpra_reg [9:0] $end
$var reg 1 5" qdpo_ce_reg $end
$var wire 32 6" spo_int [31:0] $end
$var wire 32 7" dpo_int [31:0] $end
$var reg 32 8" qspo_int [31:0] $end
$var reg 32 9" qspo_pipe [31:0] $end
$var reg 32 :" qdpo_int [31:0] $end
$var reg 32 ;" qdpo_pipe [31:0] $end
$var reg 32 <" default_data [31:0] $end
$var wire 32 =" data_sp [31:0] $end
$var wire 32 >" data_dp [31:0] $end
$var wire 32 ?" data_sp_over [31:0] $end
$var wire 32 @" data_dp_over [31:0] $end
$var wire 10 A" a_over [9:0] $end
$var wire 10 B" dpra_over [9:0] $end
$var wire 1 C" a_is_over $end
$var wire 1 D" dpra_is_over $end
$var reg 10 E" max_address [9:0] $end
$var integer 32 F" i [31:0] $end
$var integer 32 G" j [31:0] $end
$scope function binstr_conv $end
$var reg 32 H" binstr_conv [31:0] $end
$var reg 256 I" def_data [255:0] $end
$var integer 32 J" index [31:0] $end
$var integer 32 K" i [31:0] $end
$upscope $end
$upscope $end
$upscope $end
$scope module u_confreg $end
$var wire 1 1 clk $end
$var wire 1 2 timer_clk $end
$var wire 1 L" resetn $end
$var wire 1 A conf_en $end
$var wire 1 B conf_we $end
$var wire 32 C conf_addr [31:0] $end
$var wire 32 D conf_wdata [31:0] $end
$var wire 32 E conf_rdata [31:0] $end
$var wire 16 # led [15:0] $end
$var wire 2 $ led_rg0 [1:0] $end
$var wire 2 % led_rg1 [1:0] $end
$var reg 8 M" num_csn [7:0] $end
$var reg 7 N" num_a_g [6:0] $end
$var reg 32 O" num_data [31:0] $end
$var wire 8 ) switch [7:0] $end
$var wire 4 * btn_key_col [3:0] $end
$var wire 4 + btn_key_row [3:0] $end
$var wire 2 , btn_step [1:0] $end
$var reg 32 P" cr0 [31:0] $end
$var reg 32 Q" cr1 [31:0] $end
$var reg 32 R" cr2 [31:0] $end
$var reg 32 S" cr3 [31:0] $end
$var reg 32 T" cr4 [31:0] $end
$var reg 32 U" cr5 [31:0] $end
$var reg 32 V" cr6 [31:0] $end
$var reg 32 W" cr7 [31:0] $end
$var reg 32 X" led_data [31:0] $end
$var reg 32 Y" led_rg0_data [31:0] $end
$var reg 32 Z" led_rg1_data [31:0] $end
$var wire 32 [" switch_data [31:0] $end
$var wire 32 \" sw_inter_data [31:0] $end
$var wire 32 ]" btn_key_data [31:0] $end
$var wire 32 ^" btn_step_data [31:0] $end
$var reg 8 _" confreg_uart_data [7:0] $end
$var reg 1 `" confreg_uart_valid $end
$var reg 32 a" timer_r2 [31:0] $end
$var reg 32 b" simu_flag [31:0] $end
$var reg 32 c" io_simu [31:0] $end
$var reg 8 d" virtual_uart_data [7:0] $end
$var reg 1 e" open_trace $end
$var reg 1 f" num_monitor $end
$var wire 1 g" conf_write $end
$var wire 1 h" write_cr0 $end
$var wire 1 i" write_cr1 $end
$var wire 1 j" write_cr2 $end
$var wire 1 k" write_cr3 $end
$var wire 1 l" write_cr4 $end
$var wire 1 m" write_cr5 $end
$var wire 1 n" write_cr6 $end
$var wire 1 o" write_cr7 $end
$var reg 1 p" write_timer_begin $end
$var reg 1 q" write_timer_begin_r1 $end
$var reg 1 r" write_timer_begin_r2 $end
$var reg 1 s" write_timer_begin_r3 $end
$var reg 1 t" write_timer_end_r1 $end
$var reg 1 u" write_timer_end_r2 $end
$var reg 32 v" conf_wdata_r [31:0] $end
$var reg 32 w" conf_wdata_r1 [31:0] $end
$var reg 32 x" conf_wdata_r2 [31:0] $end
$var reg 32 y" timer_r1 [31:0] $end
$var reg 32 z" timer [31:0] $end
$var wire 1 {" write_timer $end
$var wire 1 |" write_io_simu $end
$var wire 1 }" write_open_trace $end
$var wire 1 ~" write_num_monitor $end
$var wire 8 !# write_uart_data [7:0] $end
$var wire 1 "# write_uart_valid $end
$var wire 1 ## write_led $end
$var reg 16 $# btn_key_r [15:0] $end
$var reg 3 %# state [2:0] $end
$var wire 3 &# next_state [2:0] $end
$var reg 1 '# key_flag $end
$var reg 20 (# key_count [19:0] $end
$var reg 4 )# state_count [3:0] $end
$var wire 1 *# key_start $end
$var wire 1 +# key_end $end
$var wire 1 ,# key_sample $end
$var wire 16 -# btn_key_tmp [15:0] $end
$var reg 1 .# btn_step0_r $end
$var reg 1 /# btn_step1_r $end
$var reg 1 0# step0_flag $end
$var reg 20 1# step0_count [19:0] $end
$var wire 1 2# step0_start $end
$var wire 1 3# step0_end $end
$var wire 1 4# step0_sample $end
$var reg 1 5# step1_flag $end
$var reg 20 6# step1_count [19:0] $end
$var wire 1 7# step1_start $end
$var wire 1 8# step1_end $end
$var wire 1 9# step1_sample $end
$var wire 1 :# write_led_rg0 $end
$var wire 1 ;# write_led_rg1 $end
$var wire 1 <# write_num $end
$var reg 20 =# count [19:0] $end
$var reg 4 ># scan_data [3:0] $end
$upscope $end
$upscope $end
$upscope $end
$enddefinitions $end

#0
$dumpvars
0!
x!!
bx !"
bx !#
0"
x"!
x""
x"#
bx #
x#!
b0 #"
x##
bx $
x$!
1$"
bx $#
bx %
x%!
0%"
bx %#
bx &
x&!
bx &"
bx &#
bx '
x'!
bx '"
x'#
bx (
x(!
bx ("
bx (#
b11111111 )
bx )!
bx )"
bx )#
bx *
bx *!
bx *"
x*#
b0 +
bx +!
x+"
0+#
b11 ,
bx ,!
0,"
x,#
bx -
x-!
0-"
b0 -#
bx .
bx .!
b0 ."
x.#
bx /
bx /!
0/"
x/#
bx 0
bx 0!
00"
x0#
01
bx 1!
b0 1"
bx 1#
02
bx 2!
b0 2"
02#
x3
bx 3!
03"
x3#
04
bx 4!
b0 4"
x4#
bx 5
x5!
05"
x5#
b0 6
x6!
bx 6"
bx 6#
bx 7
x7!
bx 7"
07#
x8
x8!
b0 8"
x8#
bx 9
x9!
b0 9"
x9#
bx :
x:!
b0 :"
x:#
bx ;
x;!
b0 ;"
x;#
x<
x<!
b0 <"
x<#
x=
x=!
bx ="
bx =#
bx >
x>!
b0 >"
bx >#
bx ?
x?!
bx ?"
bx @
x@!
bx @"
xA
xA!
bx A"
xB
bx B!
b0 B"
bx C
b0x C!
xC"
bx D
b0x D!
0D"
bx E
bx E!
b1111111111 E"
xF
bx F!
b10000000000 F"
xG
bx G!
bx G"
xH
bx H!
b0 H"
bx I
bx I!
b0 I"
bx J
bx J!
b10 J"
xK
bx K!
b11111111111111111111111111111110 K"
bx L
b0xxxxxxxxxxxxxxxxxxxxxxxxxxxxxxx L!
xL"
bx M
bx M!
bx M"
bx N
bx N!
bx N"
bx O
xO!
bx O"
zP
bx P!
bx P"
xQ
xQ!
bx Q"
xR
bx R!
bx R"
xS
b0 S!
bx S"
xT
1T!
bx T"
xU
0U!
bx U"
xV
bx V!
bx V"
xW
bx W!
bx W"
bx X
bx X!
bx X"
bx Y
bx Y!
bx Y"
bx Z
b0 Z!
bx Z"
bx [
0[!
b11111111 ["
bx00 \
0\!
b1010101010101010 \"
bx00 ]
0]!
b0xxxxxxxxxxxxxxxx ]"
bx ^
b0 ^!
b0xx ^"
bx _
0_!
bx _"
bx `
0`!
x`"
bx a
b0 a!
bx a"
bx b
b0 b!
bx b"
bx c
0c!
bx c"
bx d
b0 d!
bx d"
bx e
0e!
xe"
bx f
bx f!
xf"
bx g
bx g!
xg"
bx h
b0 h!
xh"
bx i
b0 i!
xi"
bx j
b0 j!
xj"
bx k
b0 k!
xk"
bx l
b0 l!
xl"
xm
bx m!
xm"
xn
b10101111111111110000001100 n!
xn"
xo
bx o!
xo"
xp
bx p!
xp"
xq
bx q!
xq"
xr
b0 r!
xr"
xs
xs!
xs"
xt
0t!
xt"
xu
b111111111111111 u!
xu"
xv
b1000000000000000 v!
bx v"
xw
bx w!
bx w"
xx
b0 x!
bx x"
xy
b0 y!
bx y"
xz
b10 z!
bx z"
x{
b11111111111111111111111111111110 {!
x{"
x|
x|!
x|"
x}
x}!
x}"
x~
x~!
x~"
$end

#5000
1"
11
12
03
0F
1H
0L"
0|!

#5100
x0"
bx 1"
bx 2"
13"
bx 8"
bx 9"
bx a!
1c!
bx h!
bx i!

#10000
0"
01
02

#15000
1"
b0 #
b0 $
b0 $#
b0 %
b0 %#
b11111111 &
b0 &#
b0 '
0'#
b0 (
b0 (#
b0 )#
b0 *
1*#
0,#
1.#
1/#
00#
11
b0 1#
12
03#
04#
05#
b0 6#
08#
09#
b0 =#
b0 >#
1G
b11111111 M"
b0 N"
b0 O"
b0 P"
b0 Q"
b0 R"
b0 S"
b0 T"
b0 U"
b0 V"
b0 W"
b0 X"
b0 Y"
b0 Z"
b0 ]"
b0 ^"
b0 _"
0`"
b11111111111111111111111111111111 b"
b0 c"
b0 d"
1e"
1f"
0p"
b0 z"

#20000
0"
01
02

#25000
0!!
1"
0"!
0""
0"#
0#!
0##
1$!
0%!
0&!
0'!
0(!
b1100 )!
b10000 +!
0+"
b11011111111111111111111111100 -
0-!
b0 .
b1100 .!
b1100 /
11
b11100110000 1!
12
b11011111111111111111111111100 5
16!
b10100111001100000110001100 7
07!
08
08!
09!
0:!
0:#
0;!
0;#
0<!
0<#
0=
0=!
0>!
0?!
0@!
0A!
0B
b0xxx00xx0000 E!
bx000xx00xxxx F!
bx111xx11xxxx G!
0H
b11100000000000000000000000000 I
b11100110000 I!
b11100000000000000000000000000 J
bx0000000000000000 J!
0K
b10100111001100000110001100 M
b11011111111111111111111111100 N
b11100110000 N!
b1 O
0O!
0Q
1R
b111111111111111 R!
0S
0T
1U
0V
0W
b1100 X
b111111111111111 Y!
b11100110000 [
b11111111111111101001110011000000 \
b11111111111111101001110011000000 ]
b0 ^
b1010 _
b1 `
b11001 a
b1100 b
b1100 c
b10000 d
b11100110000 e
b1001110011000001100 f
b10100111001100000110001100 f!
b1010011100110000 g
0g"
b1100011001010011100110000 h
0h"
b1 i
0i"
b10000000000 j
0j"
b10 k
0k"
b10000000000000000000000000 l
0l"
0m
b10100111001100000110001100 m!
0m"
0n
0n"
0o
0o"
0p
0q
b111111111111111 q!
0q"
0r
0s
0s!
0t
0u
0v
0w
1x
0y
b0 y"
0z
0{
0{"
0|
0|"
0}
0}"
0~
0~"

#30000
0"
01
02

#35000
1"
11
12
b0 a"
0r"

#35100
00"
b111111111111111 a!
b10100111001100000110001100 h!
b10100111001100000110001100 i!

#40000
0"
01
02

#45000
1"
11
12
0s"
0t"

#50000
0"
01
02

#55000
1"
11
12
0u"

